%YAML 1.1
%TAG !u! tag:unity3d.com,2011:
--- !u!114 &11400000
MonoBehaviour:
  m_ObjectHideFlags: 0
  m_CorrespondingSourceObject: {fileID: 0}
  m_PrefabInstance: {fileID: 0}
  m_PrefabAsset: {fileID: 0}
  m_GameObject: {fileID: 0}
  m_Enabled: 1
  m_EditorHideFlags: 0
  m_Script: {fileID: 11500000, guid: 70266c5a188e1624a820dade05ed60e9, type: 3}
  m_Name: Data
  m_EditorClassIdentifier: 
  prefabName: 
  numberOfPrefabsToCreate: 0
  spawnPoints: []
  weapon:
  - {fileID: 6917695595756980020, guid: 18fb054ac11a01d41b01883fd6f01af1, type: 3}
  - {fileID: 3009720624732165890, guid: 2f80e3d57593a824e924f213bcd6da8e, type: 3}
  - {fileID: 5473279073067189334, guid: 4bda110ad50c7fb489070b8438a5903d, type: 3}
