[api-updater (non-obsolete-error-filter)] 11/16/2022 6:02:53 PM : Starting C:/Program Files/Unity/Hub/Editor/2020.3.40f1/Editor/Data/Tools/ScriptUpdater/APIUpdater.NonObsoleteApiUpdaterDetector.exe
[api-updater (non-obsolete-error-filter)] 
----------------------------------
jit/startup time      : 811.1772ms
moved types parse time: 49ms
candidates parse time : 0ms
C# parse time         : 307ms
candidates check time : 25ms
console write time    : 0ms

[api-updater (non-obsolete-error-filter)] 11/16/2022 6:04:27 PM : Starting C:/Program Files/Unity/Hub/Editor/2020.3.40f1/Editor/Data/Tools/ScriptUpdater/APIUpdater.NonObsoleteApiUpdaterDetector.exe
[api-updater (non-obsolete-error-filter)] 
----------------------------------
jit/startup time      : 42.9099ms
moved types parse time: 43ms
candidates parse time : 0ms
C# parse time         : 151ms
candidates check time : 35ms
console write time    : 0ms

[api-updater (non-obsolete-error-filter)] 11/18/2022 3:56:30 PM : Starting C:/Program Files/Unity/Hub/Editor/2020.3.40f1/Editor/Data/Tools/ScriptUpdater/APIUpdater.NonObsoleteApiUpdaterDetector.exe
[api-updater (non-obsolete-error-filter)] 
----------------------------------
jit/startup time      : 1024.5672ms
moved types parse time: 56ms
candidates parse time : 0ms
C# parse time         : 308ms
candidates check time : 48ms
console write time    : 0ms

[api-updater (non-obsolete-error-filter)] 11/18/2022 3:57:36 PM : Starting C:/Program Files/Unity/Hub/Editor/2020.3.40f1/Editor/Data/Tools/ScriptUpdater/APIUpdater.NonObsoleteApiUpdaterDetector.exe
[api-updater (non-obsolete-error-filter)] 
----------------------------------
jit/startup time      : 51.8354ms
moved types parse time: 72ms
candidates parse time : 1ms
C# parse time         : 206ms
candidates check time : 48ms
console write time    : 0ms

[api-updater (non-obsolete-error-filter)] 11/18/2022 10:48:39 PM : Starting C:/Program Files/Unity/Hub/Editor/2020.3.38f1/Editor/Data/Tools/ScriptUpdater/APIUpdater.NonObsoleteApiUpdaterDetector.exe
[api-updater (non-obsolete-error-filter)] 
----------------------------------
jit/startup time      : 610.681ms
moved types parse time: 37ms
candidates parse time : 0ms
C# parse time         : 210ms
candidates check time : 25ms
console write time    : 0ms

[api-updater (non-obsolete-error-filter)] 11/21/2022 8:11:23 PM : Starting C:/Program Files/Unity/Hub/Editor/2020.3.38f1/Editor/Data/Tools/ScriptUpdater/APIUpdater.NonObsoleteApiUpdaterDetector.exe
[api-updater (non-obsolete-error-filter)] 
----------------------------------
jit/startup time      : 548.8365ms
moved types parse time: 41ms
candidates parse time : 1ms
C# parse time         : 175ms
candidates check time : 24ms
console write time    : 0ms

